20de0b7e-40d2-4248-82a3-cdb9e9dda658.vcd
$date
	Sat Feb  8 14:39:02 2025
$end
$version
	Icarus Verilog
$end
$timescale
	1s
$end
$scope module full_adder_tb $end
$var wire 1 ! sum $end
$var wire 1 " cout $end
$var reg 1 # a $end
$var reg 1 $ b $end
$var reg 1 % cin $end
$scope module dut $end
$var wire 1 # a $end
$var wire 1 $ b $end
$var wire 1 % cin $end
$var wire 1 " cout $end
$var wire 1 ! sum $end
$upscope $end
$scope begin $ivl_for_loop0 $end
$var integer 32 & i [31:0] $end
$upscope $end
$upscope $end
$enddefinitions $end
$comment Show the parameter values. $end
$dumpall
$end
#0
$dumpvars
b0 &
0%
0$
0#
0"
0!
$end
#10
1!
1$
b1 &
#20
1#
0$
b10 &
#30
1"
0!
1$
b11 &
#40
0"
1!
1%
0#
0$
b100 &
#50
0!
1"
1$
b101 &
#60
1"
1#
0$
b110 &
#70
1!
1$
b111 &
#80
b1000 &
