963819fe-1b5b-42cd-bfb7-532fae8d845c.vcd
$date
	Sat Feb  8 10:30:05 2025
$end
$version
	Icarus Verilog
$end
$timescale
	1ps
$end
$scope module full_adder_tb $end
$var wire 1 ! tb_sum $end
$var wire 1 " tb_cout $end
$var reg 1 # tb_a $end
$var reg 1 $ tb_b $end
$var reg 1 % tb_cin $end
$scope module uut $end
$var wire 1 # a $end
$var wire 1 $ b $end
$var wire 1 % cin $end
$var reg 1 " cout $end
$var reg 1 ! sum $end
$upscope $end
$scope begin $ivl_for_loop0 $end
$var integer 32 & i [31:0] $end
$upscope $end
$upscope $end
$enddefinitions $end
$comment Show the parameter values. $end
$dumpall
$end
#0
$dumpvars
b0 &
0%
0$
0#
0"
0!
$end
#10000
1!
1%
b1 &
#20000
1$
0%
b10 &
#30000
1"
0!
1%
b11 &
#40000
0"
1!
1#
0$
0%
b100 &
#50000
1"
0!
1%
b101 &
#60000
1$
0%
b110 &
#70000
1!
1%
b111 &
#80000
b1000 &
