b5586543-c29c-4fbf-b5f9-c0ba0a488a66.vcd
$date
	Sat Feb  8 00:15:45 2025
$end
$version
	Icarus Verilog
$end
$timescale
	1s
$end
$scope module full_adder_tb $end
$var wire 1 ! sum $end
$var wire 1 " cout $end
$var reg 1 # a $end
$var reg 1 $ b $end
$var reg 1 % cin $end
$scope module dut $end
$var wire 1 # a $end
$var wire 1 $ b $end
$var wire 1 % cin $end
$var wire 1 " cout $end
$var wire 1 ! sum $end
$upscope $end
$upscope $end
$enddefinitions $end
$comment Show the parameter values. $end
$dumpall
$end
#0
$dumpvars
0%
0$
0#
0"
0!
$end
#20
1!
1%
#30
1!
1$
0%
#40
1"
0!
1%
#50
0"
1!
1#
0$
0%
#60
1"
0!
1%
#70
0!
1$
0%
#80
1!
1%
