bfc92371-9e1a-4c44-85ad-9741fd8dcbdd.vcd
$date
	Sat Feb  8 02:30:35 2025
$end
$version
	Icarus Verilog
$end
$timescale
	1ps
$end
$scope module full_adder_tb $end
$var wire 1 ! sum $end
$var wire 1 " cout $end
$var reg 1 # a $end
$var reg 1 $ b $end
$var reg 1 % cin $end
$scope module uut $end
$var wire 1 # a $end
$var wire 1 $ b $end
$var wire 1 % cin $end
$var wire 1 " cout $end
$var wire 1 ! sum $end
$upscope $end
$upscope $end
$enddefinitions $end
$comment Show the parameter values. $end
$dumpall
$end
#0
$dumpvars
0%
0$
0#
0"
0!
$end
#20000
1!
1%
#30000
0%
1$
#40000
1"
0!
1%
#50000
0"
1!
0%
0$
1#
#60000
1"
0!
1%
#70000
0%
1$
#80000
1!
1%
