dd696843-c870-4c33-bf93-0e574e721787.vcd
$date
	Sat Feb  8 01:56:59 2025
$end
$version
	Icarus Verilog
$end
$timescale
	1ps
$end
$scope module full_adder_tb $end
$var wire 1 ! sum $end
$var wire 1 " cout $end
$var reg 1 # a $end
$var reg 1 $ b $end
$var reg 1 % cin $end
$scope module DUT $end
$var wire 1 # a $end
$var wire 1 $ b $end
$var wire 1 % cin $end
$var wire 1 " cout $end
$var wire 1 ! sum $end
$upscope $end
$upscope $end
$enddefinitions $end
$comment Show the parameter values. $end
$dumpall
$end
#0
$dumpvars
0%
0$
0#
0"
0!
$end
#20000
1!
1%
#30000
1!
1$
0%
#40000
1"
0!
1%
#50000
0"
1!
1#
0$
0%
#60000
1"
0!
1%
#70000
0!
1$
0%
#80000
1!
1%
